---
http_interactions:
- request:
    method: get
    uri: https://api.flickr.com/services/rest?accuracy=11&api_key=<FLICKR-KEY>&content_type=1&extras=url_l&format=json&media=photos&method=flickr.photos.search&nojsoncallback=true&per_page=10&tags=Denver
    body:
      encoding: US-ASCII
      string: ''
    headers:
      User-Agent:
      - Faraday v0.15.4
      Accept-Encoding:
      - gzip;q=1.0,deflate;q=0.6,identity;q=0.3
      Accept:
      - "*/*"
  response:
    status:
      code: 200
      message: OK
    headers:
      Date:
      - Mon, 15 Apr 2019 21:28:28 GMT
      Content-Type:
      - application/json
      Content-Length:
      - '709'
      P3p:
      - policyref="https://policies.yahoo.com/w3c/p3p.xml", CP="CAO DSP COR CUR ADM
        DEV TAI PSA PSD IVAi IVDi CONi TELo OTPi OUR DELi SAMi OTRi UNRi PUBi IND
        PHY ONL UNI PUR FIN COM NAV INT DEM CNT STA POL HEA PRE LOC GOV"
      Cache-Control:
      - private
      X-Served-By:
      - www-bm141.flickr.gq1.yahoo.com
      X-Frame-Options:
      - SAMEORIGIN
      Vary:
      - Accept-Encoding
      Age:
      - '0'
      Server:
      - ATS
      Referrer-Policy:
      - no-referrer-when-downgrade
      Connection:
      - keep-alive
      Strict-Transport-Security:
      - max-age=15552000
      Expect-Ct:
      - max-age=31536000, report-uri="http://csp.yahoo.com/beacon/csp?src=yahoocom-expect-ct-report-only"
      X-Xss-Protection:
      - 1; mode=block
      X-Content-Type-Options:
      - nosniff
      Public-Key-Pins-Report-Only:
      - max-age=2592000; pin-sha256="2fRAUXyxl4A1/XHrKNBmc8bTkzA7y4FB/GLJuNAzCqY=";
        pin-sha256="I/Lt/z7ekCWanjD0Cvj5EqXls2lOaThEA0H2Bg4BT/o="; pin-sha256="Wd8xe/qfTwq3ylFNd3IpaqLHZbh2ZNCLluVzmeNkcpw=";
        pin-sha256="WoiWRyIOVNa9ihaBciRSC7XHjliYS9VwUGOIud4PB18="; pin-sha256="i7WTqTvh0OioIruIfFR4kMPnBqrS2rdiVPl/s2uC/CY=";
        pin-sha256="r/mIkG3eEpVdm+u/ko/cwxzOMo1bk4TyHIlByibiA5E="; pin-sha256="uUwZgwDOxcBXrQcntwu+kYFpkiVkOaezL0WYEZ3anJc=";
        pin-sha256="dolnbtzEBnELx/9lOEQ22e6OZO/QNb6VSSX2XHA3E7A="; includeSubdomains;
        report-uri="http://csp.yahoo.com/beacon/csp?src=yahoocom-hpkp-report-only"
    body:
      encoding: ASCII-8BIT
      string: '{"photos":{"page":1,"pages":56866,"perpage":10,"total":"568660","photo":[{"id":"46701436895","owner":"81993882@N00","secret":"b9c23e9d49","server":"65535","farm":66,"title":"P1050950","ispublic":1,"isfriend":0,"isfamily":0,"url_l":"https:\/\/live.staticflickr.com\/65535\/46701436895_b9c23e9d49_b.jpg","height_l":"768","width_l":"1024"},{"id":"35806356511","owner":"155478739@N08","secret":"f3f6a35fff","server":"4205","farm":5,"title":"Peyton
        Manning","ispublic":1,"isfriend":0,"isfamily":0,"url_l":"https:\/\/live.staticflickr.com\/4205\/35806356511_f3f6a35fff_b.jpg","height_l":"1024","width_l":"1024"},{"id":"47563252052","owner":"17017714@N04","secret":"53af094825","server":"65535","farm":66,"title":"Pete''s
        Kitchen | Denver, CO","ispublic":1,"isfriend":0,"isfamily":0,"url_l":"https:\/\/live.staticflickr.com\/65535\/47563252052_53af094825_b.jpg","height_l":"768","width_l":"1024"},{"id":"46700549365","owner":"17017714@N04","secret":"4470656b5b","server":"65535","farm":66,"title":"Pete''s
        Kitchen | Denver, CO","ispublic":1,"isfriend":0,"isfamily":0,"url_l":"https:\/\/live.staticflickr.com\/65535\/46700549365_4470656b5b_b.jpg","height_l":"768","width_l":"1024"},{"id":"40649069583","owner":"17017714@N04","secret":"be3604a09e","server":"65535","farm":66,"title":"Pete''s
        Kitchen | Denver, CO","ispublic":1,"isfriend":0,"isfamily":0,"url_l":"https:\/\/live.staticflickr.com\/65535\/40649069583_be3604a09e_b.jpg","height_l":"768","width_l":"1024"},{"id":"40648181703","owner":"144166337@N07","secret":"ea31c0ecdd","server":"65535","farm":66,"title":"Helping
        their Wounded Troops","ispublic":1,"isfriend":0,"isfamily":0},{"id":"40648180183","owner":"144166337@N07","secret":"56a58c4bbb","server":"65535","farm":66,"title":"Charity
        Giving Tradition","ispublic":1,"isfriend":0,"isfamily":0},{"id":"33736655928","owner":"138798666@N02","secret":"768ae67da3","server":"65535","farm":66,"title":"professional
        tow truck","ispublic":1,"isfriend":0,"isfamily":0,"url_l":"https:\/\/live.staticflickr.com\/65535\/33736655928_768ae67da3_b.jpg","height_l":"545","width_l":"729"},{"id":"40643507843","owner":"121882202@N04","secret":"6e370d3dcf","server":"7856","farm":8,"title":"Melting
        Mound of Muck","ispublic":1,"isfriend":0,"isfamily":0,"url_l":"https:\/\/live.staticflickr.com\/7856\/40643507843_6e370d3dcf_b.jpg","height_l":"1024","width_l":"683"},{"id":"46694983835","owner":"95607642@N04","secret":"1c39832312","server":"7810","farm":8,"title":"Guys","ispublic":1,"isfriend":0,"isfamily":0,"url_l":"https:\/\/live.staticflickr.com\/7810\/46694983835_1c39832312_b.jpg","height_l":"682","width_l":"1024"}]},"stat":"ok"}'
    http_version: 
  recorded_at: Mon, 15 Apr 2019 21:28:28 GMT
recorded_with: VCR 4.0.0
