---
http_interactions:
- request:
    method: get
    uri: https://api.flickr.com/services/rest?accuracy=11&api_key=<FLICKR-KEY>&content_type=1&extras=url_l&format=json&media=photos&method=flickr.photos.search&nojsoncallback=true&per_page=10&tags=location
    body:
      encoding: US-ASCII
      string: ''
    headers:
      User-Agent:
      - Faraday v0.15.4
      Accept-Encoding:
      - gzip;q=1.0,deflate;q=0.6,identity;q=0.3
      Accept:
      - "*/*"
  response:
    status:
      code: 200
      message: OK
    headers:
      Date:
      - Wed, 17 Apr 2019 17:50:51 GMT
      Content-Type:
      - application/json
      Content-Length:
      - '667'
      P3p:
      - policyref="https://policies.yahoo.com/w3c/p3p.xml", CP="CAO DSP COR CUR ADM
        DEV TAI PSA PSD IVAi IVDi CONi TELo OTPi OUR DELi SAMi OTRi UNRi PUBi IND
        PHY ONL UNI PUR FIN COM NAV INT DEM CNT STA POL HEA PRE LOC GOV"
      Cache-Control:
      - private
      X-Served-By:
      - www320.flickr.bf1.yahoo.com
      X-Frame-Options:
      - SAMEORIGIN
      Vary:
      - Accept-Encoding
      Age:
      - '2'
      Server:
      - ATS
      Referrer-Policy:
      - no-referrer-when-downgrade
      Connection:
      - keep-alive
      Strict-Transport-Security:
      - max-age=15552000
      Expect-Ct:
      - max-age=31536000, report-uri="http://csp.yahoo.com/beacon/csp?src=yahoocom-expect-ct-report-only"
      X-Xss-Protection:
      - 1; mode=block
      X-Content-Type-Options:
      - nosniff
      Public-Key-Pins-Report-Only:
      - max-age=2592000; pin-sha256="2fRAUXyxl4A1/XHrKNBmc8bTkzA7y4FB/GLJuNAzCqY=";
        pin-sha256="I/Lt/z7ekCWanjD0Cvj5EqXls2lOaThEA0H2Bg4BT/o="; pin-sha256="Wd8xe/qfTwq3ylFNd3IpaqLHZbh2ZNCLluVzmeNkcpw=";
        pin-sha256="WoiWRyIOVNa9ihaBciRSC7XHjliYS9VwUGOIud4PB18="; pin-sha256="i7WTqTvh0OioIruIfFR4kMPnBqrS2rdiVPl/s2uC/CY=";
        pin-sha256="r/mIkG3eEpVdm+u/ko/cwxzOMo1bk4TyHIlByibiA5E="; pin-sha256="uUwZgwDOxcBXrQcntwu+kYFpkiVkOaezL0WYEZ3anJc=";
        pin-sha256="dolnbtzEBnELx/9lOEQ22e6OZO/QNb6VSSX2XHA3E7A="; includeSubdomains;
        report-uri="http://csp.yahoo.com/beacon/csp?src=yahoocom-hpkp-report-only"
    body:
      encoding: ASCII-8BIT
      string: '{"photos":{"page":1,"pages":29216,"perpage":10,"total":"292160","photo":[{"id":"47630674471","owner":"99090089@N03","secret":"be061362f3","server":"65535","farm":66,"title":"4-mile
        landscape","ispublic":1,"isfriend":0,"isfamily":0,"url_l":"https:\/\/live.staticflickr.com\/65535\/47630674471_be061362f3_b.jpg","height_l":"507","width_l":"1024"},{"id":"46715155355","owner":"99090089@N03","secret":"f3c3f98e24","server":"65535","farm":66,"title":"Cactus
        fur","ispublic":1,"isfriend":0,"isfamily":0,"url_l":"https:\/\/live.staticflickr.com\/65535\/46715155355_f3c3f98e24_b.jpg","height_l":"683","width_l":"1024"},{"id":"46906450604","owner":"99090089@N03","secret":"3fdbda8374","server":"65535","farm":66,"title":"Cactus
        flowers","ispublic":1,"isfriend":0,"isfamily":0,"url_l":"https:\/\/live.staticflickr.com\/65535\/46906450604_3fdbda8374_b.jpg","height_l":"683","width_l":"1024"},{"id":"33753384278","owner":"99090089@N03","secret":"18d4d525d5","server":"65535","farm":66,"title":"Joshua
        Tree Portrait","ispublic":1,"isfriend":0,"isfamily":0,"url_l":"https:\/\/live.staticflickr.com\/65535\/33753384278_18d4d525d5_b.jpg","height_l":"683","width_l":"1024"},{"id":"47630664261","owner":"99090089@N03","secret":"5baa0c3218","server":"65535","farm":66,"title":"Channeling
        Monet","ispublic":1,"isfriend":0,"isfamily":0,"url_l":"https:\/\/live.staticflickr.com\/65535\/47630664261_5baa0c3218_b.jpg","height_l":"683","width_l":"1024"},{"id":"46715139455","owner":"99090089@N03","secret":"83d4ee1094","server":"65535","farm":66,"title":"Tied
        up","ispublic":1,"isfriend":0,"isfamily":0,"url_l":"https:\/\/live.staticflickr.com\/65535\/46715139455_83d4ee1094_b.jpg","height_l":"683","width_l":"1024"},{"id":"46906411714","owner":"10089490@N06","secret":"0e6feda97e","server":"65535","farm":66,"title":"Bowker
        Harley-Davidson, Strand Road, Preston","ispublic":1,"isfriend":0,"isfamily":0,"url_l":"https:\/\/live.staticflickr.com\/65535\/46906411714_0e6feda97e_b.jpg","height_l":"728","width_l":"1024"},{"id":"32688170407","owner":"10089490@N06","secret":"abd3c52757","server":"65535","farm":66,"title":"53
        Degrees venue in Preston","ispublic":1,"isfriend":0,"isfamily":0,"url_l":"https:\/\/live.staticflickr.com\/65535\/32688170407_abd3c52757_b.jpg","height_l":"657","width_l":"1024"},{"id":"46715088745","owner":"10089490@N06","secret":"0de6b70442","server":"65535","farm":66,"title":"Lidl
        West Strand Preston","ispublic":1,"isfriend":0,"isfamily":0,"url_l":"https:\/\/live.staticflickr.com\/65535\/46715088745_0de6b70442_b.jpg","height_l":"643","width_l":"1024"},{"id":"40664186003","owner":"10089490@N06","secret":"444414187e","server":"65535","farm":66,"title":"Hot
        potato van in Preston","ispublic":1,"isfriend":0,"isfamily":0,"url_l":"https:\/\/live.staticflickr.com\/65535\/40664186003_444414187e_b.jpg","height_l":"698","width_l":"1024"}]},"stat":"ok"}'
    http_version: 
  recorded_at: Wed, 17 Apr 2019 17:50:45 GMT
recorded_with: VCR 4.0.0
